^C:\USERS\PCHAR\DOCUMENTS\VISUAL STUDIO 2015\PROJECTS\PROGRAMMATION STRUCTURER\GREYJACKVFINALE\GREYJACKVFINALE\X64\DEBUG\GREYJACK.OBJ
C:\USERS\PCHAR\DOCUMENTS\VISUAL STUDIO 2015\PROJECTS\PROGRAMMATION STRUCTURER\GREYJACKVFINALE\X64\DEBUG\GREYJACKVFINALE.ILK
C:\USERS\PCHAR\DOCUMENTS\VISUAL STUDIO 2015\PROJECTS\PROGRAMMATION STRUCTURER\GREYJACKVFINALE\X64\DEBUG\GREYJACKVFINALE.EXE
C:\USERS\PCHAR\DOCUMENTS\VISUAL STUDIO 2015\PROJECTS\PROGRAMMATION STRUCTURER\GREYJACKVFINALE\X64\DEBUG\GREYJACKVFINALE.PDB
